\relax 
\@writefile{toc}{\contentsline {section}{\numberline {1}Introduction}{1}\protected@file@percent }
\@writefile{toc}{\contentsline {section}{\numberline {2}Related Work}{1}\protected@file@percent }
\@writefile{toc}{\contentsline {subsection}{\numberline {2.1}Why don't we use traditional clustering algorithms?}{1}\protected@file@percent }
\@writefile{toc}{\contentsline {subsection}{\numberline {2.2}Clustering graphs}{1}\protected@file@percent }
\newlabel{Table 1}{{2}{2}}
\@writefile{lot}{\contentsline {table}{\numberline {1}{\ignorespaces Table 1:Comparison of related work}}{2}\protected@file@percent }
\@writefile{toc}{\contentsline {subsection}{\numberline {2.3}Clustering attributed graphs}{2}\protected@file@percent }
\@writefile{toc}{\contentsline {section}{\numberline {3}Proposed Method}{2}\protected@file@percent }
\@writefile{toc}{\contentsline {subsection}{\numberline {3.1}Problem Description}{2}\protected@file@percent }
\@writefile{toc}{\contentsline {subsection}{\numberline {3.2}Problem Formulation}{2}\protected@file@percent }
\@writefile{toc}{\contentsline {subsection}{\numberline {3.3}Objective Function Formulation}{2}\protected@file@percent }
\@writefile{toc}{\contentsline {subsection}{\numberline {3.4}Proposed Algorithm}{2}\protected@file@percent }
\@writefile{loa}{\contentsline {algorithm}{\numberline {1}{\ignorespaces PICS}}{2}\protected@file@percent }
\newlabel{euclid}{{1}{2}}
\bibcite{IEEEhowto:kopka}{1}
\@writefile{toc}{\contentsline {subsection}{\numberline {3.5}Convergence}{3}\protected@file@percent }
\@writefile{toc}{\contentsline {subsection}{\numberline {3.6}Computational Complexity}{3}\protected@file@percent }
\@writefile{toc}{\contentsline {section}{\numberline {4}Empirical Study}{3}\protected@file@percent }
\@writefile{toc}{\contentsline {section}{\numberline {5}Conclusion}{3}\protected@file@percent }
\@writefile{toc}{\contentsline {section}{\numberline {6}Appendix}{3}\protected@file@percent }
\@writefile{toc}{\contentsline {section}{\numberline {7}Formula}{3}\protected@file@percent }
\@writefile{toc}{\contentsline {section}{References}{3}\protected@file@percent }
